digraph  {
0 [class="start active", fillcolor=green, fontsize=12, label=START, style=filled];
"-1" [class=end, fillcolor=red, fontsize=12, label=END, style=filled];
1 [class="", fontsize=12, label=utter_contact_number];
"-3" [class=ellipsis, label="..."];
2 [class="", fontsize=12, label=utter_show_interest_rate];
"-4" [class=ellipsis, label="..."];
3 [class="", fontsize=12, label=utter_job_vacancy];
"-5" [class=ellipsis, label="..."];
4 [class="", fontsize=12, label=utter_bank_balance];
"-6" [class=ellipsis, label="..."];
5 [class="", fontsize=12, label=utter_time_for_bank_loan];
"-7" [class=ellipsis, label="..."];
6 [class="", fontsize=12, label=utter_bank_transaction_detail];
"-8" [class=ellipsis, label="..."];
7 [class="", fontsize=12, label=utter_change_detail];
"-9" [class=ellipsis, label="..."];
8 [class="", fontsize=12, label=utter_transfer_balance];
"-10" [class=ellipsis, label="..."];
9 [class="", fontsize=12, label=utter_banking_service];
"-11" [class=ellipsis, label="..."];
10 [class="", fontsize=12, label=utter_new_item];
"-12" [class=ellipsis, label="..."];
11 [class=active, fontsize=12, label=utter_greet];
12 [class="", fontsize=12, label=utter_types_of_loan];
"-13" [class=ellipsis, label="..."];
13 [class="", fontsize=12, label=utter_bank_rank];
"-15" [class=ellipsis, label="..."];
15 [class="", fontsize=12, label=utter_bank_link];
"-16" [class=ellipsis, label="..."];
16 [class="", fontsize=12, label=utter_account_balance];
"-17" [class=ellipsis, label="..."];
17 [class="", fontsize=12, label=utter_about_insurance];
"-18" [class=ellipsis, label="..."];
18 [class="", fontsize=12, label=utter_open_account];
"-19" [class=ellipsis, label="..."];
19 [class="", fontsize=12, label=utter_bank_location];
"-20" [class=ellipsis, label="..."];
20 [class="", fontsize=12, label=utter_bank_branch];
"-21" [class=ellipsis, label="..."];
21 [class="", fontsize=12, label=utter_bank_time];
"-22" [class=ellipsis, label="..."];
22 [class="", fontsize=12, label=utter_bank_current_status];
"-23" [class=ellipsis, label="..."];
23 [class="", fontsize=12, label=utter_bank_working_days];
"-24" [class=ellipsis, label="..."];
24 [class="", fontsize=12, label=utter_loan];
"-25" [class=ellipsis, label="..."];
25 [class="", fontsize=12, label=utter_international_payment];
"-26" [class=ellipsis, label="..."];
27 [class="intent dashed active", label="  ?  ", shape=rect];
28 [class=intent, fillcolor=lightblue, label="\/contact_number", shape=rect, style=filled];
29 [class=intent, fillcolor=lightblue, label="\/show_rate_of_interest", shape=rect, style=filled];
30 [class=intent, fillcolor=lightblue, label="\/job_vacancy", shape=rect, style=filled];
31 [class=intent, fillcolor=lightblue, label="\/current_bank_balance", shape=rect, style=filled];
32 [class=intent, fillcolor=lightblue, label="\/time_for_bank_loan", shape=rect, style=filled];
33 [class=intent, fillcolor=lightblue, label="\/bank_transaction_detail", shape=rect, style=filled];
34 [class=intent, fillcolor=lightblue, label="\/change_detail", shape=rect, style=filled];
35 [class=intent, fillcolor=lightblue, label="\/transfer_balance", shape=rect, style=filled];
36 [class=intent, fillcolor=lightblue, label="\/banking_service", shape=rect, style=filled];
37 [class=intent, fillcolor=lightblue, label="\/get_new_item", shape=rect, style=filled];
38 [class="intent active", fillcolor=lightblue, label=Hello, shape=rect, style=filled];
39 [class=intent, fillcolor=lightblue, label="\/types_of_loan", shape=rect, style=filled];
40 [class=intent, fillcolor=lightblue, label="\/bank_rank", shape=rect, style=filled];
41 [class=intent, fillcolor=lightblue, label="\/bank_share_value", shape=rect, style=filled];
42 [class=intent, fillcolor=lightblue, label="\/bank_link", shape=rect, style=filled];
43 [class=intent, fillcolor=lightblue, label="\/account_minimal_balance", shape=rect, style=filled];
44 [class=intent, fillcolor=lightblue, label="\/about_insurance", shape=rect, style=filled];
45 [class=intent, fillcolor=lightblue, label="\/open_account", shape=rect, style=filled];
46 [class=intent, fillcolor=lightblue, label="\/bank_location", shape=rect, style=filled];
47 [class=intent, fillcolor=lightblue, label="\/bank_branch", shape=rect, style=filled];
48 [class=intent, fillcolor=lightblue, label="\/bank_time", shape=rect, style=filled];
49 [class=intent, fillcolor=lightblue, label="\/bank_current_satus", shape=rect, style=filled];
50 [class=intent, fillcolor=lightblue, label="\/bank_working_days", shape=rect, style=filled];
51 [class=intent, fillcolor=lightblue, label="\/get_loan", shape=rect, style=filled];
52 [class=intent, fillcolor=lightblue, label="\/international_payment", shape=rect, style=filled];
0 -> 28  [class="", key=0];
0 -> 29  [class="", key=0];
0 -> 30  [class="", key=0];
0 -> 31  [class="", key=0];
0 -> 32  [class="", key=0];
0 -> 33  [class="", key=0];
0 -> 34  [class="", key=0];
0 -> 35  [class="", key=0];
0 -> 36  [class="", key=0];
0 -> 37  [class="", key=0];
0 -> 38  [class=active, key=0];
0 -> 39  [class="", key=0];
0 -> 40  [class="", key=0];
0 -> 41  [class="", key=0];
0 -> 42  [class="", key=0];
0 -> 43  [class="", key=0];
0 -> 44  [class="", key=0];
0 -> 45  [class="", key=0];
0 -> 46  [class="", key=0];
0 -> 47  [class="", key=0];
0 -> 48  [class="", key=0];
0 -> 49  [class="", key=0];
0 -> 50  [class="", key=0];
0 -> 51  [class="", key=0];
0 -> 52  [class="", key=0];
1 -> "-3"  [class="", key=NONE, label=""];
2 -> "-4"  [class="", key=NONE, label=""];
3 -> "-5"  [class="", key=NONE, label=""];
4 -> "-6"  [class="", key=NONE, label=""];
5 -> "-7"  [class="", key=NONE, label=""];
6 -> "-8"  [class="", key=NONE, label=""];
7 -> "-9"  [class="", key=NONE, label=""];
8 -> "-10"  [class="", key=NONE, label=""];
9 -> "-11"  [class="", key=NONE, label=""];
10 -> "-12"  [class="", key=NONE, label=""];
11 -> "-1"  [class="", key=NONE, label=""];
11 -> 27  [class=active, key=NONE, label=""];
12 -> "-13"  [class="", key=NONE, label=""];
13 -> "-15"  [class="", key=NONE, label=""];
15 -> "-16"  [class="", key=NONE, label=""];
16 -> "-17"  [class="", key=NONE, label=""];
17 -> "-18"  [class="", key=NONE, label=""];
18 -> "-19"  [class="", key=NONE, label=""];
19 -> "-20"  [class="", key=NONE, label=""];
20 -> "-21"  [class="", key=NONE, label=""];
21 -> "-22"  [class="", key=NONE, label=""];
22 -> "-23"  [class="", key=NONE, label=""];
23 -> "-24"  [class="", key=NONE, label=""];
24 -> "-25"  [class="", key=NONE, label=""];
25 -> "-26"  [class="", key=NONE, label=""];
28 -> 1  [class="", key=0];
29 -> 2  [class="", key=0];
30 -> 3  [class="", key=0];
31 -> 4  [class="", key=0];
32 -> 5  [class="", key=0];
33 -> 6  [class="", key=0];
34 -> 7  [class="", key=0];
35 -> 8  [class="", key=0];
36 -> 9  [class="", key=0];
37 -> 10  [class="", key=0];
38 -> 11  [class=active, key=0];
39 -> 12  [class="", key=0];
40 -> 13  [class="", key=0];
41 -> 13  [class="", key=0];
42 -> 15  [class="", key=0];
43 -> 16  [class="", key=0];
44 -> 17  [class="", key=0];
45 -> 18  [class="", key=0];
46 -> 19  [class="", key=0];
47 -> 20  [class="", key=0];
48 -> 21  [class="", key=0];
49 -> 22  [class="", key=0];
50 -> 23  [class="", key=0];
51 -> 24  [class="", key=0];
52 -> 25  [class="", key=0];
}
